CPUProject/thinpad_top.sim/sim_1/behav/xsim/simulate.log
Vivado Simulator 2019.2
Time resolution is 1 ps
[        0 ns]  --- Device is Busy  (start up time) --- 
WARNING: Insufficient data from the input file for $fread
BaseRAM Init Size(words):          18
WARNING: file /tmp/eram.bin could not be opened
Failed to open ExtRAM init file
ExtRAM Init Size(words):           0
[        0 ns]  ASynchronous Read Mode
[        0 ns]  VDD Voltage is OK
[        0 ns]  VDDQ Voltage is OK
[        0 ns] Inizialize the Memory to default value
WARNING: file /tmp/kernel.elf could not be opened
[        0 ns] Warning: File: /tmp/kernel.elf not found
i:         -1
PC:00000000,instruction:zzzzzzzz
instruction[31:26]:zzzzzz,rs:zzzzz,rt:zzzzz,rd:xxxxx,func:zzzzzz,imm:zzzzzzzzzzzzzzzz
read_data1:xxxxxxxx,read_data2:xxxxxxxx,reg_write_data:xxxxxxxx,dm_read_data:x
ALU_op1:xxxxxxxx,ALU_op2:xxxxxxxx,ALU_result:xxxxxxxx,zero:x,PCsrc:x,Memtoreg:x,bne_addr:xxxxxxxx

[       60 ns]  --- Device is Ready (end of start-up time) --- 
i:          0
PC:00000004,instruction:34080001
instruction[31:26]:001101,rs:00000,rt:01000,rd:01000,func:000001,imm:0000000000000001
read_data1:00000000,read_data2:00000001,reg_write_data:00000001,dm_read_data:z
ALU_op1:00000000,ALU_op2:00000001,ALU_result:00000001,zero:0,PCsrc:0,Memtoreg:1,bne_addr:00000008

i:          1
PC:00000008,instruction:34090001
instruction[31:26]:001101,rs:00000,rt:01001,rd:01001,func:000001,imm:0000000000000001
read_data1:00000000,read_data2:00000000,reg_write_data:00000001,dm_read_data:z
ALU_op1:00000000,ALU_op2:00000001,ALU_result:00000001,zero:0,PCsrc:0,Memtoreg:1,bne_addr:0000000c

i:          2
PC:0000000c,instruction:34110004
instruction[31:26]:001101,rs:00000,rt:10001,rd:10001,func:000100,imm:0000000000000100
read_data1:00000000,read_data2:00000000,reg_write_data:00000004,dm_read_data:z
ALU_op1:00000000,ALU_op2:00000004,ALU_result:00000004,zero:0,PCsrc:0,Memtoreg:1,bne_addr:0000001c

i:          3
PC:00000010,instruction:340c0100
instruction[31:26]:001101,rs:00000,rt:01100,rd:01100,func:000000,imm:0000000100000000
read_data1:00000000,read_data2:00000000,reg_write_data:00000100,dm_read_data:z
ALU_op1:00000000,ALU_op2:00000100,ALU_result:00000100,zero:0,PCsrc:0,Memtoreg:1,bne_addr:00000410

i:          4
PC:00000014,instruction:3c048040
instruction[31:26]:001111,rs:00000,rt:00100,rd:00100,func:000000,imm:1000000001000000
read_data1:00000000,read_data2:00000000,reg_write_data:80400000,dm_read_data:z
ALU_op1:00000000,ALU_op2:ffff8040,ALU_result:80400000,zero:0,PCsrc:0,Memtoreg:1,bne_addr:fffe0114

i:          5
PC:00000018,instruction:008c6821
instruction[31:26]:000000,rs:00100,rt:01100,rd:01101,func:100001,imm:0110100000100001
read_data1:80400000,read_data2:00000100,reg_write_data:80400100,dm_read_data:z
ALU_op1:80400000,ALU_op2:00000100,ALU_result:80400100,zero:0,PCsrc:0,Memtoreg:1,bne_addr:0001a09c

i:          6
PC:0000001c,instruction:01095021
instruction[31:26]:000000,rs:01000,rt:01001,rd:01010,func:100001,imm:0101000000100001
read_data1:00000001,read_data2:00000001,reg_write_data:00000002,dm_read_data:z
ALU_op1:00000001,ALU_op2:00000001,ALU_result:00000002,zero:0,PCsrc:0,Memtoreg:1,bne_addr:000140a0

i:          7
PC:00000020,instruction:35280000
instruction[31:26]:001101,rs:01001,rt:01000,rd:01000,func:000000,imm:0000000000000000
read_data1:00000001,read_data2:00000001,reg_write_data:00000001,dm_read_data:z
ALU_op1:00000001,ALU_op2:00000000,ALU_result:00000001,zero:0,PCsrc:0,Memtoreg:1,bne_addr:00000020

i:          8
PC:00000024,instruction:35490000
instruction[31:26]:001101,rs:01010,rt:01001,rd:01001,func:000000,imm:0000000000000000
read_data1:00000002,read_data2:00000001,reg_write_data:00000002,dm_read_data:z
ALU_op1:00000002,ALU_op2:00000000,ALU_result:00000002,zero:0,PCsrc:0,Memtoreg:1,bne_addr:00000024

i:          9
PC:00000028,instruction:ac890000
instruction[31:26]:101011,rs:00100,rt:01001,rd:01001,func:000000,imm:0000000000000000
read_data1:80400000,read_data2:00000002,reg_write_data:00000002,dm_read_data:0
ALU_op1:80400000,ALU_op2:00000000,ALU_result:80400000,zero:0,PCsrc:0,Memtoreg:0,bne_addr:00000028

i:         10
PC:0000002c,instruction:8c8b0000
instruction[31:26]:100011,rs:00100,rt:01011,rd:01011,func:000000,imm:0000000000000000
read_data1:80400000,read_data2:00000000,reg_write_data:00000002,dm_read_data:0
ALU_op1:80400000,ALU_op2:00000000,ALU_result:80400000,zero:0,PCsrc:0,Memtoreg:0,bne_addr:0000002c

i:         11
PC:00000030,instruction:152b0004
instruction[31:26]:000101,rs:01001,rt:01011,rd:01011,func:000100,imm:0000000000000100
read_data1:00000002,read_data2:00000002,reg_write_data:zzzzzzzz,dm_read_data:z
ALU_op1:00000002,ALU_op2:00000002,ALU_result:00000000,zero:1,PCsrc:1,Memtoreg:0,bne_addr:00000040

i:         12
PC:00000034,instruction:34000000
instruction[31:26]:001101,rs:00000,rt:00000,rd:00000,func:000000,imm:0000000000000000
read_data1:00000000,read_data2:00000000,reg_write_data:00000000,dm_read_data:z
ALU_op1:00000000,ALU_op2:00000000,ALU_result:00000000,zero:1,PCsrc:0,Memtoreg:1,bne_addr:00000034

i:         13
PC:00000038,instruction:00912021
instruction[31:26]:000000,rs:00100,rt:10001,rd:00100,func:100001,imm:0010000000100001
read_data1:80400000,read_data2:00000004,reg_write_data:80400004,dm_read_data:z
ALU_op1:80400000,ALU_op2:00000004,ALU_result:80400004,zero:0,PCsrc:0,Memtoreg:1,bne_addr:000080bc

i:         14
PC:00000018,instruction:148dfff7
instruction[31:26]:000101,rs:00100,rt:01101,rd:01101,func:110111,imm:1111111111110111
read_data1:80400004,read_data2:80400100,reg_write_data:zzzzzzzz,dm_read_data:z
ALU_op1:80400004,ALU_op2:80400100,ALU_result:ffffff04,zero:0,PCsrc:1,Memtoreg:0,bne_addr:00000018

i:         15
PC:0000001c,instruction:01095021
instruction[31:26]:000000,rs:01000,rt:01001,rd:01010,func:100001,imm:0101000000100001
read_data1:00000001,read_data2:00000002,reg_write_data:00000003,dm_read_data:z
ALU_op1:00000001,ALU_op2:00000002,ALU_result:00000003,zero:0,PCsrc:0,Memtoreg:1,bne_addr:000140a0

i:         16
PC:00000020,instruction:35280000
instruction[31:26]:001101,rs:01001,rt:01000,rd:01000,func:000000,imm:0000000000000000
read_data1:00000002,read_data2:00000001,reg_write_data:00000002,dm_read_data:z
ALU_op1:00000002,ALU_op2:00000000,ALU_result:00000002,zero:0,PCsrc:0,Memtoreg:1,bne_addr:00000020

i:         17
PC:00000024,instruction:35490000
instruction[31:26]:001101,rs:01010,rt:01001,rd:01001,func:000000,imm:0000000000000000
read_data1:00000003,read_data2:00000002,reg_write_data:00000003,dm_read_data:z
ALU_op1:00000003,ALU_op2:00000000,ALU_result:00000003,zero:0,PCsrc:0,Memtoreg:1,bne_addr:00000024

i:         18
PC:00000028,instruction:ac890000
instruction[31:26]:101011,rs:00100,rt:01001,rd:01001,func:000000,imm:0000000000000000
read_data1:80400004,read_data2:00000003,reg_write_data:00000003,dm_read_data:1
ALU_op1:80400004,ALU_op2:00000000,ALU_result:80400004,zero:0,PCsrc:0,Memtoreg:0,bne_addr:00000028

i:         19
PC:0000002c,instruction:8c8b0000
instruction[31:26]:100011,rs:00100,rt:01011,rd:01011,func:000000,imm:0000000000000000
read_data1:80400004,read_data2:00000002,reg_write_data:00000003,dm_read_data:1
ALU_op1:80400004,ALU_op2:00000000,ALU_result:80400004,zero:0,PCsrc:0,Memtoreg:0,bne_addr:0000002c

i:         20
PC:00000030,instruction:152b0004
instruction[31:26]:000101,rs:01001,rt:01011,rd:01011,func:000100,imm:0000000000000100
read_data1:00000003,read_data2:00000003,reg_write_data:zzzzzzzz,dm_read_data:z
ALU_op1:00000003,ALU_op2:00000003,ALU_result:00000000,zero:1,PCsrc:1,Memtoreg:0,bne_addr:00000040

i:         21
PC:00000034,instruction:34000000
instruction[31:26]:001101,rs:00000,rt:00000,rd:00000,func:000000,imm:0000000000000000
read_data1:00000000,read_data2:00000000,reg_write_data:00000000,dm_read_data:z
ALU_op1:00000000,ALU_op2:00000000,ALU_result:00000000,zero:1,PCsrc:0,Memtoreg:1,bne_addr:00000034

i:         22
PC:00000038,instruction:00912021
instruction[31:26]:000000,rs:00100,rt:10001,rd:00100,func:100001,imm:0010000000100001
read_data1:80400004,read_data2:00000004,reg_write_data:80400008,dm_read_data:z
ALU_op1:80400004,ALU_op2:00000004,ALU_result:80400008,zero:0,PCsrc:0,Memtoreg:1,bne_addr:000080bc

i:         23
PC:00000018,instruction:148dfff7
instruction[31:26]:000101,rs:00100,rt:01101,rd:01101,func:110111,imm:1111111111110111
read_data1:80400008,read_data2:80400100,reg_write_data:zzzzzzzz,dm_read_data:z
ALU_op1:80400008,ALU_op2:80400100,ALU_result:ffffff08,zero:0,PCsrc:1,Memtoreg:0,bne_addr:00000018

i:         24
PC:0000001c,instruction:01095021
instruction[31:26]:000000,rs:01000,rt:01001,rd:01010,func:100001,imm:0101000000100001
read_data1:00000002,read_data2:00000003,reg_write_data:00000005,dm_read_data:z
ALU_op1:00000002,ALU_op2:00000003,ALU_result:00000005,zero:0,PCsrc:0,Memtoreg:1,bne_addr:000140a0

i:         25
PC:00000020,instruction:35280000
instruction[31:26]:001101,rs:01001,rt:01000,rd:01000,func:000000,imm:0000000000000000
read_data1:00000003,read_data2:00000002,reg_write_data:00000003,dm_read_data:z
ALU_op1:00000003,ALU_op2:00000000,ALU_result:00000003,zero:0,PCsrc:0,Memtoreg:1,bne_addr:00000020

i:         26
PC:00000024,instruction:35490000
instruction[31:26]:001101,rs:01010,rt:01001,rd:01001,func:000000,imm:0000000000000000
read_data1:00000005,read_data2:00000003,reg_write_data:00000005,dm_read_data:z
ALU_op1:00000005,ALU_op2:00000000,ALU_result:00000005,zero:0,PCsrc:0,Memtoreg:1,bne_addr:00000024

i:         27
PC:00000028,instruction:ac890000
instruction[31:26]:101011,rs:00100,rt:01001,rd:01001,func:000000,imm:0000000000000000
read_data1:80400008,read_data2:00000005,reg_write_data:00000005,dm_read_data:1
ALU_op1:80400008,ALU_op2:00000000,ALU_result:80400008,zero:0,PCsrc:0,Memtoreg:0,bne_addr:00000028

i:         28
PC:0000002c,instruction:8c8b0000
instruction[31:26]:100011,rs:00100,rt:01011,rd:01011,func:000000,imm:0000000000000000
read_data1:80400008,read_data2:00000003,reg_write_data:00000005,dm_read_data:1
ALU_op1:80400008,ALU_op2:00000000,ALU_result:80400008,zero:0,PCsrc:0,Memtoreg:0,bne_addr:0000002c

i:         29
PC:00000030,instruction:152b0004
instruction[31:26]:000101,rs:01001,rt:01011,rd:01011,func:000100,imm:0000000000000100
read_data1:00000005,read_data2:00000005,reg_write_data:zzzzzzzz,dm_read_data:z
ALU_op1:00000005,ALU_op2:00000005,ALU_result:00000000,zero:1,PCsrc:1,Memtoreg:0,bne_addr:00000040

i:         30
PC:00000034,instruction:34000000
instruction[31:26]:001101,rs:00000,rt:00000,rd:00000,func:000000,imm:0000000000000000
read_data1:00000000,read_data2:00000000,reg_write_data:00000000,dm_read_data:z
ALU_op1:00000000,ALU_op2:00000000,ALU_result:00000000,zero:1,PCsrc:0,Memtoreg:1,bne_addr:00000034

i:         31
PC:00000038,instruction:00912021
instruction[31:26]:000000,rs:00100,rt:10001,rd:00100,func:100001,imm:0010000000100001
read_data1:80400008,read_data2:00000004,reg_write_data:8040000c,dm_read_data:z
ALU_op1:80400008,ALU_op2:00000004,ALU_result:8040000c,zero:0,PCsrc:0,Memtoreg:1,bne_addr:000080bc

i:         32
PC:00000018,instruction:148dfff7
instruction[31:26]:000101,rs:00100,rt:01101,rd:01101,func:110111,imm:1111111111110111
read_data1:8040000c,read_data2:80400100,reg_write_data:zzzzzzzz,dm_read_data:z
ALU_op1:8040000c,ALU_op2:80400100,ALU_result:ffffff0c,zero:0,PCsrc:1,Memtoreg:0,bne_addr:00000018

i:         33
PC:0000001c,instruction:01095021
instruction[31:26]:000000,rs:01000,rt:01001,rd:01010,func:100001,imm:0101000000100001
read_data1:00000003,read_data2:00000005,reg_write_data:00000008,dm_read_data:z
ALU_op1:00000003,ALU_op2:00000005,ALU_result:00000008,zero:0,PCsrc:0,Memtoreg:1,bne_addr:000140a0

i:         34
PC:00000020,instruction:35280000
instruction[31:26]:001101,rs:01001,rt:01000,rd:01000,func:000000,imm:0000000000000000
read_data1:00000005,read_data2:00000003,reg_write_data:00000005,dm_read_data:z
ALU_op1:00000005,ALU_op2:00000000,ALU_result:00000005,zero:0,PCsrc:0,Memtoreg:1,bne_addr:00000020

i:         35
PC:00000024,instruction:35490000
instruction[31:26]:001101,rs:01010,rt:01001,rd:01001,func:000000,imm:0000000000000000
read_data1:00000008,read_data2:00000005,reg_write_data:00000008,dm_read_data:z
ALU_op1:00000008,ALU_op2:00000000,ALU_result:00000008,zero:0,PCsrc:0,Memtoreg:1,bne_addr:00000024

i:         36
PC:00000028,instruction:ac890000
instruction[31:26]:101011,rs:00100,rt:01001,rd:01001,func:000000,imm:0000000000000000
read_data1:8040000c,read_data2:00000008,reg_write_data:00000008,dm_read_data:0
ALU_op1:8040000c,ALU_op2:00000000,ALU_result:8040000c,zero:0,PCsrc:0,Memtoreg:0,bne_addr:00000028

i:         37
PC:0000002c,instruction:8c8b0000
instruction[31:26]:100011,rs:00100,rt:01011,rd:01011,func:000000,imm:0000000000000000
read_data1:8040000c,read_data2:00000005,reg_write_data:00000008,dm_read_data:0
ALU_op1:8040000c,ALU_op2:00000000,ALU_result:8040000c,zero:0,PCsrc:0,Memtoreg:0,bne_addr:0000002c

i:         38
PC:00000030,instruction:152b0004
instruction[31:26]:000101,rs:01001,rt:01011,rd:01011,func:000100,imm:0000000000000100
read_data1:00000008,read_data2:00000008,reg_write_data:zzzzzzzz,dm_read_data:z
ALU_op1:00000008,ALU_op2:00000008,ALU_result:00000000,zero:1,PCsrc:1,Memtoreg:0,bne_addr:00000040

i:         39
PC:00000034,instruction:34000000
instruction[31:26]:001101,rs:00000,rt:00000,rd:00000,func:000000,imm:0000000000000000
read_data1:00000000,read_data2:00000000,reg_write_data:00000000,dm_read_data:z
ALU_op1:00000000,ALU_op2:00000000,ALU_result:00000000,zero:1,PCsrc:0,Memtoreg:1,bne_addr:00000034

i:         40
PC:00000038,instruction:00912021
instruction[31:26]:000000,rs:00100,rt:10001,rd:00100,func:100001,imm:0010000000100001
read_data1:8040000c,read_data2:00000004,reg_write_data:80400010,dm_read_data:z
ALU_op1:8040000c,ALU_op2:00000004,ALU_result:80400010,zero:0,PCsrc:0,Memtoreg:1,bne_addr:000080bc

i:         41
PC:00000018,instruction:148dfff7
instruction[31:26]:000101,rs:00100,rt:01101,rd:01101,func:110111,imm:1111111111110111
read_data1:80400010,read_data2:80400100,reg_write_data:zzzzzzzz,dm_read_data:z
ALU_op1:80400010,ALU_op2:80400100,ALU_result:ffffff10,zero:0,PCsrc:1,Memtoreg:0,bne_addr:00000018

i:         42
PC:0000001c,instruction:01095021
instruction[31:26]:000000,rs:01000,rt:01001,rd:01010,func:100001,imm:0101000000100001
read_data1:00000005,read_data2:00000008,reg_write_data:0000000d,dm_read_data:z
ALU_op1:00000005,ALU_op2:00000008,ALU_result:0000000d,zero:0,PCsrc:0,Memtoreg:1,bne_addr:000140a0

i:         43
PC:00000020,instruction:35280000
instruction[31:26]:001101,rs:01001,rt:01000,rd:01000,func:000000,imm:0000000000000000
read_data1:00000008,read_data2:00000005,reg_write_data:00000008,dm_read_data:z
ALU_op1:00000008,ALU_op2:00000000,ALU_result:00000008,zero:0,PCsrc:0,Memtoreg:1,bne_addr:00000020

i:         44
PC:00000024,instruction:35490000
instruction[31:26]:001101,rs:01010,rt:01001,rd:01001,func:000000,imm:0000000000000000
read_data1:0000000d,read_data2:00000008,reg_write_data:0000000d,dm_read_data:z
ALU_op1:0000000d,ALU_op2:00000000,ALU_result:0000000d,zero:0,PCsrc:0,Memtoreg:1,bne_addr:00000024

i:         45
PC:00000028,instruction:ac890000
instruction[31:26]:101011,rs:00100,rt:01001,rd:01001,func:000000,imm:0000000000000000
read_data1:80400010,read_data2:0000000d,reg_write_data:0000000d,dm_read_data:1
ALU_op1:80400010,ALU_op2:00000000,ALU_result:80400010,zero:0,PCsrc:0,Memtoreg:0,bne_addr:00000028

i:         46
PC:0000002c,instruction:8c8b0000
instruction[31:26]:100011,rs:00100,rt:01011,rd:01011,func:000000,imm:0000000000000000
read_data1:80400010,read_data2:00000008,reg_write_data:0000000d,dm_read_data:1
ALU_op1:80400010,ALU_op2:00000000,ALU_result:80400010,zero:0,PCsrc:0,Memtoreg:0,bne_addr:0000002c

i:         47
PC:00000030,instruction:152b0004
instruction[31:26]:000101,rs:01001,rt:01011,rd:01011,func:000100,imm:0000000000000100
read_data1:0000000d,read_data2:0000000d,reg_write_data:zzzzzzzz,dm_read_data:z
ALU_op1:0000000d,ALU_op2:0000000d,ALU_result:00000000,zero:1,PCsrc:1,Memtoreg:0,bne_addr:00000040

i:         48
PC:00000034,instruction:34000000
instruction[31:26]:001101,rs:00000,rt:00000,rd:00000,func:000000,imm:0000000000000000
read_data1:00000000,read_data2:00000000,reg_write_data:00000000,dm_read_data:z
ALU_op1:00000000,ALU_op2:00000000,ALU_result:00000000,zero:1,PCsrc:0,Memtoreg:1,bne_addr:00000034

i:         49
PC:00000038,instruction:00912021
instruction[31:26]:000000,rs:00100,rt:10001,rd:00100,func:100001,imm:0010000000100001
read_data1:80400010,read_data2:00000004,reg_write_data:80400014,dm_read_data:z
ALU_op1:80400010,ALU_op2:00000004,ALU_result:80400014,zero:0,PCsrc:0,Memtoreg:1,bne_addr:000080bc

i:         50
PC:00000018,instruction:148dfff7
instruction[31:26]:000101,rs:00100,rt:01101,rd:01101,func:110111,imm:1111111111110111
read_data1:80400014,read_data2:80400100,reg_write_data:zzzzzzzz,dm_read_data:z
ALU_op1:80400014,ALU_op2:80400100,ALU_result:ffffff14,zero:0,PCsrc:1,Memtoreg:0,bne_addr:00000018

i:         51
PC:0000001c,instruction:01095021
instruction[31:26]:000000,rs:01000,rt:01001,rd:01010,func:100001,imm:0101000000100001
read_data1:00000008,read_data2:0000000d,reg_write_data:00000015,dm_read_data:z
ALU_op1:00000008,ALU_op2:0000000d,ALU_result:00000015,zero:0,PCsrc:0,Memtoreg:1,bne_addr:000140a0

i:         52
PC:00000020,instruction:35280000
instruction[31:26]:001101,rs:01001,rt:01000,rd:01000,func:000000,imm:0000000000000000
read_data1:0000000d,read_data2:00000008,reg_write_data:0000000d,dm_read_data:z
ALU_op1:0000000d,ALU_op2:00000000,ALU_result:0000000d,zero:0,PCsrc:0,Memtoreg:1,bne_addr:00000020

i:         53
PC:00000024,instruction:35490000
instruction[31:26]:001101,rs:01010,rt:01001,rd:01001,func:000000,imm:0000000000000000
read_data1:00000015,read_data2:0000000d,reg_write_data:00000015,dm_read_data:z
ALU_op1:00000015,ALU_op2:00000000,ALU_result:00000015,zero:0,PCsrc:0,Memtoreg:1,bne_addr:00000024

i:         54
PC:00000028,instruction:ac890000
instruction[31:26]:101011,rs:00100,rt:01001,rd:01001,func:000000,imm:0000000000000000
read_data1:80400014,read_data2:00000015,reg_write_data:00000015,dm_read_data:1
ALU_op1:80400014,ALU_op2:00000000,ALU_result:80400014,zero:0,PCsrc:0,Memtoreg:0,bne_addr:00000028

i:         55
PC:0000002c,instruction:8c8b0000
instruction[31:26]:100011,rs:00100,rt:01011,rd:01011,func:000000,imm:0000000000000000
read_data1:80400014,read_data2:0000000d,reg_write_data:00000015,dm_read_data:1
ALU_op1:80400014,ALU_op2:00000000,ALU_result:80400014,zero:0,PCsrc:0,Memtoreg:0,bne_addr:0000002c

i:         56
PC:00000030,instruction:152b0004
instruction[31:26]:000101,rs:01001,rt:01011,rd:01011,func:000100,imm:0000000000000100
read_data1:00000015,read_data2:00000015,reg_write_data:zzzzzzzz,dm_read_data:z
ALU_op1:00000015,ALU_op2:00000015,ALU_result:00000000,zero:1,PCsrc:1,Memtoreg:0,bne_addr:00000040

i:         57
PC:00000034,instruction:34000000
instruction[31:26]:001101,rs:00000,rt:00000,rd:00000,func:000000,imm:0000000000000000
read_data1:00000000,read_data2:00000000,reg_write_data:00000000,dm_read_data:z
ALU_op1:00000000,ALU_op2:00000000,ALU_result:00000000,zero:1,PCsrc:0,Memtoreg:1,bne_addr:00000034

i:         58
PC:00000038,instruction:00912021
instruction[31:26]:000000,rs:00100,rt:10001,rd:00100,func:100001,imm:0010000000100001
read_data1:80400014,read_data2:00000004,reg_write_data:80400018,dm_read_data:z
ALU_op1:80400014,ALU_op2:00000004,ALU_result:80400018,zero:0,PCsrc:0,Memtoreg:1,bne_addr:000080bc

i:         59
PC:00000018,instruction:148dfff7
instruction[31:26]:000101,rs:00100,rt:01101,rd:01101,func:110111,imm:1111111111110111
read_data1:80400018,read_data2:80400100,reg_write_data:zzzzzzzz,dm_read_data:z
ALU_op1:80400018,ALU_op2:80400100,ALU_result:ffffff18,zero:0,PCsrc:1,Memtoreg:0,bne_addr:00000018

i:         60
PC:0000001c,instruction:01095021
instruction[31:26]:000000,rs:01000,rt:01001,rd:01010,func:100001,imm:0101000000100001
read_data1:0000000d,read_data2:00000015,reg_write_data:00000022,dm_read_data:z
ALU_op1:0000000d,ALU_op2:00000015,ALU_result:00000022,zero:0,PCsrc:0,Memtoreg:1,bne_addr:000140a0

i:         61
PC:00000020,instruction:35280000
instruction[31:26]:001101,rs:01001,rt:01000,rd:01000,func:000000,imm:0000000000000000
read_data1:00000015,read_data2:0000000d,reg_write_data:00000015,dm_read_data:z
ALU_op1:00000015,ALU_op2:00000000,ALU_result:00000015,zero:0,PCsrc:0,Memtoreg:1,bne_addr:00000020

i:         62
PC:00000024,instruction:35490000
instruction[31:26]:001101,rs:01010,rt:01001,rd:01001,func:000000,imm:0000000000000000
read_data1:00000022,read_data2:00000015,reg_write_data:00000022,dm_read_data:z
ALU_op1:00000022,ALU_op2:00000000,ALU_result:00000022,zero:0,PCsrc:0,Memtoreg:1,bne_addr:00000024

i:         63
PC:00000028,instruction:ac890000
instruction[31:26]:101011,rs:00100,rt:01001,rd:01001,func:000000,imm:0000000000000000
read_data1:80400018,read_data2:00000022,reg_write_data:00000022,dm_read_data:0
ALU_op1:80400018,ALU_op2:00000000,ALU_result:80400018,zero:0,PCsrc:0,Memtoreg:0,bne_addr:00000028

i:         64
PC:0000002c,instruction:8c8b0000
instruction[31:26]:100011,rs:00100,rt:01011,rd:01011,func:000000,imm:0000000000000000
read_data1:80400018,read_data2:00000015,reg_write_data:00000022,dm_read_data:0
ALU_op1:80400018,ALU_op2:00000000,ALU_result:80400018,zero:0,PCsrc:0,Memtoreg:0,bne_addr:0000002c

i:         65
PC:00000030,instruction:152b0004
instruction[31:26]:000101,rs:01001,rt:01011,rd:01011,func:000100,imm:0000000000000100
read_data1:00000022,read_data2:00000022,reg_write_data:zzzzzzzz,dm_read_data:z
ALU_op1:00000022,ALU_op2:00000022,ALU_result:00000000,zero:1,PCsrc:1,Memtoreg:0,bne_addr:00000040

i:         66
PC:00000034,instruction:34000000
instruction[31:26]:001101,rs:00000,rt:00000,rd:00000,func:000000,imm:0000000000000000
read_data1:00000000,read_data2:00000000,reg_write_data:00000000,dm_read_data:z
ALU_op1:00000000,ALU_op2:00000000,ALU_result:00000000,zero:1,PCsrc:0,Memtoreg:1,bne_addr:00000034

i:         67
PC:00000038,instruction:00912021
instruction[31:26]:000000,rs:00100,rt:10001,rd:00100,func:100001,imm:0010000000100001
read_data1:80400018,read_data2:00000004,reg_write_data:8040001c,dm_read_data:z
ALU_op1:80400018,ALU_op2:00000004,ALU_result:8040001c,zero:0,PCsrc:0,Memtoreg:1,bne_addr:000080bc

i:         68
PC:00000018,instruction:148dfff7
instruction[31:26]:000101,rs:00100,rt:01101,rd:01101,func:110111,imm:1111111111110111
read_data1:8040001c,read_data2:80400100,reg_write_data:zzzzzzzz,dm_read_data:z
ALU_op1:8040001c,ALU_op2:80400100,ALU_result:ffffff1c,zero:0,PCsrc:1,Memtoreg:0,bne_addr:00000018

i:         69
PC:0000001c,instruction:01095021
instruction[31:26]:000000,rs:01000,rt:01001,rd:01010,func:100001,imm:0101000000100001
read_data1:00000015,read_data2:00000022,reg_write_data:00000037,dm_read_data:z
ALU_op1:00000015,ALU_op2:00000022,ALU_result:00000037,zero:0,PCsrc:0,Memtoreg:1,bne_addr:000140a0

i:         70
PC:00000020,instruction:35280000
instruction[31:26]:001101,rs:01001,rt:01000,rd:01000,func:000000,imm:0000000000000000
read_data1:00000022,read_data2:00000015,reg_write_data:00000022,dm_read_data:z
ALU_op1:00000022,ALU_op2:00000000,ALU_result:00000022,zero:0,PCsrc:0,Memtoreg:1,bne_addr:00000020

i:         71
PC:00000024,instruction:35490000
instruction[31:26]:001101,rs:01010,rt:01001,rd:01001,func:000000,imm:0000000000000000
read_data1:00000037,read_data2:00000022,reg_write_data:00000037,dm_read_data:z
ALU_op1:00000037,ALU_op2:00000000,ALU_result:00000037,zero:0,PCsrc:0,Memtoreg:1,bne_addr:00000024

i:         72
PC:00000028,instruction:ac890000
instruction[31:26]:101011,rs:00100,rt:01001,rd:01001,func:000000,imm:0000000000000000
read_data1:8040001c,read_data2:00000037,reg_write_data:00000037,dm_read_data:1
ALU_op1:8040001c,ALU_op2:00000000,ALU_result:8040001c,zero:0,PCsrc:0,Memtoreg:0,bne_addr:00000028

i:         73
PC:0000002c,instruction:8c8b0000
instruction[31:26]:100011,rs:00100,rt:01011,rd:01011,func:000000,imm:0000000000000000
read_data1:8040001c,read_data2:00000022,reg_write_data:00000037,dm_read_data:1
ALU_op1:8040001c,ALU_op2:00000000,ALU_result:8040001c,zero:0,PCsrc:0,Memtoreg:0,bne_addr:0000002c

i:         74
PC:00000030,instruction:152b0004
instruction[31:26]:000101,rs:01001,rt:01011,rd:01011,func:000100,imm:0000000000000100
read_data1:00000037,read_data2:00000037,reg_write_data:zzzzzzzz,dm_read_data:z
ALU_op1:00000037,ALU_op2:00000037,ALU_result:00000000,zero:1,PCsrc:1,Memtoreg:0,bne_addr:00000040

i:         75
PC:00000034,instruction:34000000
instruction[31:26]:001101,rs:00000,rt:00000,rd:00000,func:000000,imm:0000000000000000
read_data1:00000000,read_data2:00000000,reg_write_data:00000000,dm_read_data:z
ALU_op1:00000000,ALU_op2:00000000,ALU_result:00000000,zero:1,PCsrc:0,Memtoreg:1,bne_addr:00000034

i:         76
PC:00000038,instruction:00912021
instruction[31:26]:000000,rs:00100,rt:10001,rd:00100,func:100001,imm:0010000000100001
read_data1:8040001c,read_data2:00000004,reg_write_data:80400020,dm_read_data:z
ALU_op1:8040001c,ALU_op2:00000004,ALU_result:80400020,zero:0,PCsrc:0,Memtoreg:1,bne_addr:000080bc

i:         77
PC:00000018,instruction:148dfff7
instruction[31:26]:000101,rs:00100,rt:01101,rd:01101,func:110111,imm:1111111111110111
read_data1:80400020,read_data2:80400100,reg_write_data:zzzzzzzz,dm_read_data:z
ALU_op1:80400020,ALU_op2:80400100,ALU_result:ffffff20,zero:0,PCsrc:1,Memtoreg:0,bne_addr:00000018

i:         78
PC:0000001c,instruction:01095021
instruction[31:26]:000000,rs:01000,rt:01001,rd:01010,func:100001,imm:0101000000100001
read_data1:00000022,read_data2:00000037,reg_write_data:00000059,dm_read_data:z
ALU_op1:00000022,ALU_op2:00000037,ALU_result:00000059,zero:0,PCsrc:0,Memtoreg:1,bne_addr:000140a0

i:         79
PC:00000020,instruction:35280000
instruction[31:26]:001101,rs:01001,rt:01000,rd:01000,func:000000,imm:0000000000000000
read_data1:00000037,read_data2:00000022,reg_write_data:00000037,dm_read_data:z
ALU_op1:00000037,ALU_op2:00000000,ALU_result:00000037,zero:0,PCsrc:0,Memtoreg:1,bne_addr:00000020

i:         80
PC:00000024,instruction:35490000
instruction[31:26]:001101,rs:01010,rt:01001,rd:01001,func:000000,imm:0000000000000000
read_data1:00000059,read_data2:00000037,reg_write_data:00000059,dm_read_data:z
ALU_op1:00000059,ALU_op2:00000000,ALU_result:00000059,zero:0,PCsrc:0,Memtoreg:1,bne_addr:00000024

i:         81
PC:00000028,instruction:ac890000
instruction[31:26]:101011,rs:00100,rt:01001,rd:01001,func:000000,imm:0000000000000000
read_data1:80400020,read_data2:00000059,reg_write_data:00000059,dm_read_data:1
ALU_op1:80400020,ALU_op2:00000000,ALU_result:80400020,zero:0,PCsrc:0,Memtoreg:0,bne_addr:00000028

i:         82
PC:0000002c,instruction:8c8b0000
instruction[31:26]:100011,rs:00100,rt:01011,rd:01011,func:000000,imm:0000000000000000
read_data1:80400020,read_data2:00000037,reg_write_data:00000059,dm_read_data:1
ALU_op1:80400020,ALU_op2:00000000,ALU_result:80400020,zero:0,PCsrc:0,Memtoreg:0,bne_addr:0000002c

i:         83
PC:00000030,instruction:152b0004
instruction[31:26]:000101,rs:01001,rt:01011,rd:01011,func:000100,imm:0000000000000100
read_data1:00000059,read_data2:00000059,reg_write_data:zzzzzzzz,dm_read_data:z
ALU_op1:00000059,ALU_op2:00000059,ALU_result:00000000,zero:1,PCsrc:1,Memtoreg:0,bne_addr:00000040

i:         84
PC:00000034,instruction:34000000
instruction[31:26]:001101,rs:00000,rt:00000,rd:00000,func:000000,imm:0000000000000000
read_data1:00000000,read_data2:00000000,reg_write_data:00000000,dm_read_data:z
